{
  "project_info": {
    "project_number": "1033796232957",
    "firebase_url": "https://fapplication-a2920.firebaseio.com",
    "project_id": "fapplication-a2920",
    "storage_bucket": "fapplication-a2920.appspot.com"
  },
  "client": [
    {
      "client_info": {
        "mobilesdk_app_id": "1:1033796232957:android:293c7c6591df13b3",
        "android_client_info": {
          "package_name": "com.example.denis.fapplication"
        }
      },
      "oauth_client": [
        {
          "client_id": "1033796232957-5bi1e3a3o5b8ogq9rn0icsgugt4ato5v.apps.googleusercontent.com",
          "client_type": 1,
          "android_info": {
            "package_name": "com.example.denis.fapplication",
            "certificate_hash": "b2da497ff48f6166aa0d5d30c112aaf557018f8e"
          }
        },
        {
          "client_id": "1033796232957-g6oooqjeg7pac0d7omnj9rdsup4lfrs6.apps.googleusercontent.com",
          "client_type": 3
        }
      ],
      "api_key": [
        {
          "current_key": "AIzaSyA9kZ84qAmsv7R5UA_yRj01k-1XkFrmIK4"
        }
      ],
      "services": {
        "analytics_service": {
          "status": 1
        },
        "appinvite_service": {
          "status": 2,
          "other_platform_oauth_client": [
            {
              "client_id": "1033796232957-g6oooqjeg7pac0d7omnj9rdsup4lfrs6.apps.googleusercontent.com",
              "client_type": 3
            }
          ]
        },
        "ads_service": {
          "status": 2
        }
      }
    }
  ],
  "configuration_version": "1"
}